{
  "env": "development",
  "nodePath": "/usr/app",
  "serverPort": 8089,
  "auth": {
    "authorization": false
  },
  "dbConfig": {
    "TypeORM": {
      "type": "postgres",
      "host": "db",
      "port": 5432,
      "database": "experience",
      "username": "experience",
      "password": "experience",
      "synchronize": true,
      "migrationsRun": false,
      "logging": true,
      "entities": [
        "src/Infrastructure/Schema/TypeORM/*.ts"
      ],
      "migrations": [
        "src/Infrastructure/Migrations/TypeORM/**/*.ts"
      ],
      "subscribers": [
        "src/Infrastructure/Subscribers/TypeORM/**/*.ts"
      ],
      "cli": {
        "entitiesDir": "/src/Infrastructure/Entities/TypeORM",
        "migrationsDir": "/src/Infrastructure/Migrations",
        "subscribersDir": "/src/Infrastructure/Subscribers"
      }
    },
    "Mongoose": {
      "host": "db",
      "port": 27017,
      "database": "experience",
      "username": "experience",
      "password": "experience"
    },
    "default": "Mongoose"
  },
  "cache": {
    "redis": {
      "port": 6379,
      "host": "redis",
      "password": "ewsua132435"
    }
  },
  "filesystem": {
    "minio": {
      "endPoint": "minio",
      "accessKey": "minio",
      "secretKey": "12345678",
      "useSSL": false,
      "port": 9000,
      "region": "us-east-1",
      "bucket": "experience"
    },
    "local": {
      "type": "local"
    },
    "default": "minio",
    "expiry": 241920
  },
  "encryption": {
    "bcrypt": {
      "type": "bcrypt",
      "saltRounds": 10,
      "algorithm": "HS512"
    },
  "encryptionDefault": "bcrypt"
  },
  "jwt": {
    "secret": "mySecretJWT",
    "expires": 3600,
    "iss": "digichanges",
    "aud": "digichanges.com"
  },
  "mail": {
    "host": "mail",
    "port": 1025,
    "username": "",
    "password": "",
    "secure": false,
    "senderName": "Notifications",
    "senderEmailDefault": "notification@localhost.com",
    "templateDir": "App/Infrastructure/templates/emails"
  },
  "push": {
    "privateKey": "BFbzNLYCWO7Ei0cmBco43ZCsEbhFAOzcfop1eHYiK8CVCBK_-xeWEWzHHlQiPEUPvuxwMHc1koGj40t2hcgiWvk",
    "publicKey": "k8sGjPBnD8iabMkB6toD8payp9plozw4t4FSfjhUPhQ"
  },
  "url":{
    "urlApi": "http://localhost:8089/api/",
    "urlWeb": "http://localhost:3000/"
  },
  "productInfo": {
    "productName": "experience"
  },
  "validationSettings": {
    "password": {
      "min": 3,
      "max": 15
    }
  },
  "apiWhitelist": [
    {
      "method": ["GET"],
      "url": "/"
    },
    {
      "method": ["POST"],
      "url": "/api/auth/login"
    },
    {
      "method": ["POST"],
      "url": "/api/auth/forgotPassword"
    },
    {
      "method": ["POST"],
      "url": "/api/auth/changeForgotPassword"
    },
    {
      "method": ["GET"],
      "url": "/log"
    }
  ]
}
